assembly
…
ppm <- rbind(ozone.temp, nitrogen.temp, sulfur.temp, cmonoxide.temp, lead.temp)
ppm <- ppm[,c(1, 4, 3, 2)]
ppm <- group_by(ppm, Year, element, X10th.Percentile)
summarise(ppm)

## `summarise()` has grouped output by 'Year', 'element'. You can override using the `.groups` argument.

## # A tibble: 165 x 3
## # Groups:   Year, element [165]
##     Year element         X10th.Percentile
##    <int> <chr>                      <dbl>
##  1  1980 carbon monoxide              4.6
##  2  1980 nitrogen                    66.5
##  3  1980 sulfur                      50  
##  4  1981 carbon monoxide              3.9
##  5  1981 nitrogen                    66.5
##  6  1981 sulfur                      50  
##  7  1982 carbon monoxide              4.8
##  8  1982 nitrogen                    66.5
##  9  1982 sulfur                      40  
## 10  1983 carbon monoxide              4.5
## # ... with 155 more rows
…
